<svg width="19" height="19" viewBox="0 0 19 19" fill="none" xmlns="http://www.w3.org/2000/svg">
<path d="M17.8243 4.76367C16.74 4.76367 15.7395 4.40445 14.9361 3.79846C14.0147 3.10377 13.3526 2.08475 13.1188 0.910234C13.061 0.620039 13.0298 0.320566 13.0268 0.0136719H9.92929V8.47758L9.92558 13.1137C9.92558 14.3531 9.11845 15.404 7.99961 15.7737C7.6749 15.8809 7.32422 15.9317 6.95906 15.9117C6.49297 15.8861 6.05619 15.7454 5.67656 15.5183C4.86869 15.0352 4.32095 14.1587 4.30611 13.156C4.28273 11.5888 5.54965 10.3112 7.11566 10.3112C7.42478 10.3112 7.72166 10.3616 7.99961 10.4533V8.13988V7.30826C7.70644 7.26484 7.40808 7.24221 7.10638 7.24221C5.3923 7.24221 3.78918 7.95471 2.64324 9.23832C1.77711 10.2084 1.25758 11.446 1.17742 12.7437C1.0724 14.4485 1.69621 16.069 2.90597 17.2647C3.08373 17.4402 3.27039 17.6031 3.46558 17.7534C4.50279 18.5517 5.77082 18.9844 7.10638 18.9844C7.40808 18.9844 7.70644 18.9621 7.99961 18.9187C9.24722 18.7339 10.3984 18.1628 11.3068 17.2647C12.423 16.1614 13.0398 14.6967 13.0465 13.1378L13.0305 6.21465C13.563 6.62545 14.1453 6.96537 14.7702 7.22922C15.7421 7.63928 16.7726 7.84709 17.8332 7.84672V5.59752V4.76293C17.834 4.76367 17.8251 4.76367 17.8243 4.76367Z" fill="#5726DA"/>
</svg>
