<svg width="56" height="74" viewBox="0 0 56 74" fill="none" xmlns="http://www.w3.org/2000/svg">
<path d="M13.2832 70C9.0832 67.6 5.8832 64.2 3.5832 59.6C1.2832 55.1 0.183204 49.7 0.183204 43.5V0.399998H13.5832V44.3C13.5832 49.3 14.7832 53.3 17.2832 56.3C19.7832 59.3 23.3832 60.8 27.9832 60.8C32.5832 60.8 36.0832 59.3 38.5832 56.3C41.0832 53.3 42.3832 49.3 42.3832 44.3V0.399998H55.7832V43.5C55.7832 49.5 54.5832 54.7 52.3832 59.2C50.0832 63.8 46.8832 67.3 42.6832 69.8C38.4832 72.4 33.5832 73.6 27.9832 73.6C22.3832 73.6 17.4832 72.4 13.2832 70Z" fill="#5726DA"/>
</svg>
