<svg width="75" height="75" viewBox="0 0 75 75" fill="none" xmlns="http://www.w3.org/2000/svg">
<path d="M37.5 75C58.2107 75 75 58.2107 75 37.5C75 16.7893 58.2107 0 37.5 0C16.7893 0 0 16.7893 0 37.5C0 58.2107 16.7893 75 37.5 75Z" fill="#BCA8F0"/>
<mask id="mask0_2256_15798" style="mask-type:luminance" maskUnits="userSpaceOnUse" x="0" y="0" width="75" height="75">
<path d="M37.5 75C58.2107 75 75 58.2107 75 37.5C75 16.7893 58.2107 0 37.5 0C16.7893 0 0 16.7893 0 37.5C0 58.2107 16.7893 75 37.5 75Z" fill="white"/>
</mask>
<g mask="url(#mask0_2256_15798)">
<path d="M8.64469 44.3484C9.43062 49.4008 11.4516 54.2286 14.5953 58.2706C20.2091 65.2316 30.6507 69.8349 39.0713 64.8948C42.6642 62.7616 45.1342 59.1688 46.4815 55.2391C49.6252 46.3694 47.2674 35.8155 40.6432 29.1912C33.0085 21.5565 17.5145 17.6269 10.7779 28.6298C8.75697 31.9981 8.08332 36.1523 8.30787 40.1942C8.30787 41.6538 8.42014 43.0011 8.64469 44.3484Z" fill="#E5E5FF"/>
<path d="M34.3556 3.36862C33.5697 4.04227 32.7837 4.71592 32.3346 5.61412C31.8855 6.51233 31.7733 7.74736 32.3346 8.53329C33.3451 9.88059 35.2538 9.54376 36.8257 9.20694C34.3556 14.0348 32.6715 19.424 31.9978 24.8132C31.8855 25.8237 31.7733 26.8342 31.9978 27.8447C32.2224 28.8551 32.7837 29.8656 33.7942 30.2024C34.917 30.7638 36.3766 30.3147 37.387 29.5288C38.3975 28.7429 39.0712 27.6201 39.7448 26.4974C39.0712 31.662 40.0816 36.939 42.664 41.43C43.2254 42.3282 43.7867 43.2264 44.7972 43.451C45.6954 43.6755 46.7059 43.1141 47.2673 42.3282C47.8286 41.5423 48.0532 40.6441 48.2777 39.7459C49.176 35.1426 48.8391 30.2024 47.2673 25.7114C47.4918 27.0587 47.6041 28.406 48.2777 29.5288C48.9514 30.6515 50.1864 31.5498 51.5337 31.4375C52.5442 31.3252 53.3301 30.5393 53.7792 29.7533C54.2283 28.8551 54.3406 27.8447 54.4529 26.8342C54.4529 24.0273 53.5547 21.1081 51.7583 18.8626C53.1056 19.7608 54.7897 20.7713 56.2493 19.9854C57.5966 19.3117 57.8212 17.5153 57.8212 15.9435C57.5966 11.3402 55.8002 6.84915 52.6565 3.36862C50.2987 0.674004 46.8182 -1.79606 43.3376 -2.58198C41.6535 -3.03109 40.8676 -2.35743 39.6325 -1.23468C37.8361 0.224902 36.152 1.79676 34.3556 3.36862Z" fill="#5726DA"/>
<path d="M81.6244 28.5176C76.4597 24.1388 68.1513 27.6194 63.3235 30.8754C59.5061 33.4577 56.4747 37.0505 55.0151 41.4292C52.7696 47.7167 54.3414 55.2391 58.7202 60.067C61.9762 63.6598 67.0286 65.3439 71.7441 64.6703C76.4597 64.1089 80.8384 61.302 83.7576 57.5969C86.789 53.7795 88.2486 48.8394 88.1363 43.8993C88.0241 39.0715 86.2276 34.2436 83.3085 30.314" fill="#341783"/>
<path d="M50.6357 82.1848L49.5129 81.848C51.983 74.4378 49.6252 65.568 43.7869 60.4033C41.5414 58.3824 38.7345 56.8105 36.0399 55.351C34.468 54.4527 32.8962 53.6668 31.4366 52.6563C28.4052 50.6354 23.2405 46.4812 23.0159 40.6429C22.9037 38.2851 23.5773 36.0396 24.251 33.7941C25.0369 31.2117 25.7105 28.8539 25.2614 26.3839C24.4755 22.342 20.6581 19.5351 17.4022 17.4019C8.9815 12.1249 -0.112808 8.08299 -9.54395 5.50065L-9.20712 4.26562C0.336294 6.96024 9.54288 11.0022 17.9635 16.2791C21.4441 18.4123 25.486 21.556 26.3842 26.0471C26.8333 28.7417 26.0474 31.4363 25.3737 34.0186C24.7001 36.1519 24.1387 38.2851 24.251 40.4183C24.4755 45.8075 29.3034 49.6249 32.1102 51.5336C33.5698 52.4318 35.1417 53.33 36.7135 54.2282C39.4081 55.6878 42.3273 57.2596 44.6851 59.3929C50.748 64.8944 53.218 74.3255 50.6357 82.1848Z" fill="#341783"/>
<path d="M4.37867 32.4466C4.2664 32.8957 4.2664 33.4571 4.60322 33.7939C4.82778 34.0185 5.27688 34.0185 5.50143 33.9062C6.96101 33.3448 8.19604 30.7625 7.07328 29.4152C5.83825 27.731 4.49095 31.4361 4.37867 32.4466Z" fill="#FFA900"/>
<path d="M12.8007 41.7656C13.0252 42.1024 13.2498 42.4392 13.5866 42.776C13.9234 43.0006 14.3725 43.1129 14.8216 43.0006C15.2707 42.776 15.4953 42.4392 15.6076 41.9901C16.1689 40.4183 15.9444 36.8254 13.9234 36.3763C11.4534 35.815 12.2393 40.7551 12.8007 41.7656Z" fill="#FFA900"/>
<path d="M18.9739 29.7527C19.0861 30.2018 19.3107 30.6509 19.7598 30.6509C20.2089 30.6509 20.4334 30.3141 20.658 29.865C20.8825 29.1914 21.1071 26.8336 19.9843 26.609C18.5248 26.4967 18.8616 29.0791 18.9739 29.7527Z" fill="#FFA900"/>
</g>
</svg>
