<svg width="28" height="28" viewBox="0 0 28 28" fill="none" xmlns="http://www.w3.org/2000/svg">
<g id="turn_right">
<mask id="mask0_2358_5610" style="mask-type:alpha" maskUnits="userSpaceOnUse" x="0" y="0" width="28" height="28">
<rect id="Bounding box" width="28" height="28" fill="#D9D9D9"/>
</mask>
<g mask="url(#mask0_2358_5610)">
<path id="turn_right_2" d="M8.16663 23.3333V12.8333C8.16663 12.1917 8.3951 11.6424 8.85204 11.1854C9.30899 10.7285 9.85829 10.5 10.5 10.5H20.0666L18.2 8.63333L19.8333 7L24.5 11.6667L19.8333 16.3333L18.2 14.7L20.0666 12.8333H10.5V23.3333H8.16663Z" fill="#5726DA"/>
</g>
</g>
</svg>
